current directory: /data/data/com.termux/files/home/nokogiri/data/data/com.termux/files/usr/lib/ruby/gems/2.4.0/gems/nokogiri-1.8.1/ext/nokogiri
/data/data/com.termux/files/usr/bin/ruby -r ./siteconf20171103-8221-1aj2scr.rb extconf.rb --use-system-libraries
checking if the C compiler accepts ... yes
Building nokogiri using system libraries.
checking for xmlParseDoc() in libxml/parser.h... yes
checking for xsltParseStylesheetDoc() in libxslt/xslt.h... yes
checking for exsltFuncRegister() in libexslt/exslt.h... yes
checking for xmlHasFeature()... yes
checking for xmlFirstElementChild()... yes
checking for xmlRelaxNGSetParserStructuredErrors()... yes
checking for xmlRelaxNGSetParserStructuredErrors()... yes
checking for xmlRelaxNGSetValidStructuredErrors()... yes
checking for xmlSchemaSetValidStructuredErrors()... yes
checking for xmlSchemaSetParserStructuredErrors()... yes
creating Makefile

current directory: /data/data/com.termux/files/home/nokogiri/data/data/com.termux/files/usr/lib/ruby/gems/2.4.0/gems/nokogiri-1.8.1/ext/nokogiri
make "DESTDIR=" clean

current directory: /data/data/com.termux/files/home/nokogiri/data/data/com.termux/files/usr/lib/ruby/gems/2.4.0/gems/nokogiri-1.8.1/ext/nokogiri
make "DESTDIR="
compiling html_document.c
compiling html_element_description.c
compiling html_entity_lookup.c
compiling html_sax_parser_context.c
compiling html_sax_push_parser.c
compiling nokogiri.c
compiling xml_attr.c
compiling xml_attribute_decl.c
compiling xml_cdata.c
xml_cdata.c:28:56: warning: passing 'const xmlChar *' (aka 'const unsigned char *') to parameter of type 'const char *' converts between pointers to integer types with different sign [-Wpointer-sign]
  content_str_len = (content_str == NULL) ? 0 : strlen(content_str);
                                                       ^~~~~~~~~~~
/data/data/com.termux/files/usr/include/string.h:97:35: note: passing argument to parameter here
size_t strlen(const char* _Nonnull) __attribute_pure__ __overloadable
                                  ^
1 warning generated.
compiling xml_comment.c
compiling xml_document.c
compiling xml_document_fragment.c
compiling xml_dtd.c
compiling xml_element_content.c
compiling xml_element_decl.c
compiling xml_encoding_handler.c
compiling xml_entity_decl.c
compiling xml_entity_reference.c
compiling xml_io.c
compiling xml_libxml2_hacks.c
compiling xml_namespace.c
xml_namespace.c:67:49: warning: incompatible pointer types passing 'struct _xmlNs *' to parameter of type 'xmlNodePtr' (aka 'struct _xmlNode *') [-Wincompatible-pointer-types]
  return (node->next && ! Nokogiri_namespace_eh(node->next));
                                                ^~~~~~~~~~
xml_namespace.c:27:38: note: passing argument to parameter 'node' here
int Nokogiri_namespace_eh(xmlNodePtr node)
                                     ^
1 warning generated.
compiling xml_node.c
xml_node.c:170:15: warning: 14 enumeration values not handled in switch: 'XML_ATTRIBUTE_NODE', 'XML_ENTITY_NODE', 'XML_DOCUMENT_NODE'... [-Wswitch]
      switch (reparentee->type) {
              ^
xml_node.c:188:15: warning: 15 enumeration values not handled in switch: 'XML_ATTRIBUTE_NODE', 'XML_ENTITY_NODE', 'XML_DOCUMENT_NODE'... [-Wswitch]
      switch (reparentee->type) {
              ^
xml_node.c:199:15: warning: 19 enumeration values not handled in switch: 'XML_ELEMENT_NODE', 'XML_ATTRIBUTE_NODE', 'XML_CDATA_SECTION_NODE'... [-Wswitch]
      switch (reparentee->type) {
              ^
xml_node.c:167:13: warning: 14 enumeration values not handled in switch: 'XML_CDATA_SECTION_NODE', 'XML_ENTITY_NODE', 'XML_PI_NODE'... [-Wswitch]
    switch (parent->type) {
            ^
4 warnings generated.
compiling xml_node_set.c
compiling xml_processing_instruction.c
compiling xml_reader.c
compiling xml_relax_ng.c
compiling xml_sax_parser.c
compiling xml_sax_parser_context.c
compiling xml_sax_push_parser.c
compiling xml_schema.c
compiling xml_syntax_error.c
compiling xml_text.c
compiling xml_xpath_context.c
compiling xslt_stylesheet.c
xslt_stylesheet.c:217:21: warning: incompatible pointer to integer conversion passing 'void *' to parameter of type 'VALUE' (aka 'unsigned long') [-Wint-conversion]
    Data_Get_Struct(ctxt->style->_private, nokogiriXsltStylesheetTuple,
                    ^~~~~~~~~~~~~~~~~~~~~
/data/data/com.termux/files/usr/include/ruby-2.4.0/ruby/ruby.h:1188:41: note: expanded from macro 'Data_Get_Struct'
    ((sval) = (type*)rb_data_object_get(obj))
                                        ^~~
/data/data/com.termux/files/usr/include/ruby-2.4.0/ruby/ruby.h:1352:26: note: passing argument to parameter 'obj' here
rb_data_object_get(VALUE obj)
                         ^
xslt_stylesheet.c:230:21: warning: incompatible pointer to integer conversion passing 'void *' to parameter of type 'VALUE' (aka 'unsigned long') [-Wint-conversion]
    Data_Get_Struct(ctxt->style->_private, nokogiriXsltStylesheetTuple,
                    ^~~~~~~~~~~~~~~~~~~~~
/data/data/com.termux/files/usr/include/ruby-2.4.0/ruby/ruby.h:1188:41: note: expanded from macro 'Data_Get_Struct'
    ((sval) = (type*)rb_data_object_get(obj))
                                        ^~~
/data/data/com.termux/files/usr/include/ruby-2.4.0/ruby/ruby.h:1352:26: note: passing argument to parameter 'obj' here
rb_data_object_get(VALUE obj)
                         ^
2 warnings generated.
linking shared-object nokogiri/nokogiri.so
Cleaning files only used during build.
rm -rf /data/data/com.termux/files/home/nokogiri/data/data/com.termux/files/usr/lib/ruby/gems/2.4.0/gems/nokogiri-1.8.1/ports/archives

current directory: /data/data/com.termux/files/home/nokogiri/data/data/com.termux/files/usr/lib/ruby/gems/2.4.0/gems/nokogiri-1.8.1/ext/nokogiri
make "DESTDIR=" install
install -c -m 0755 nokogiri.so ./.gem.20171103-8221-rx0a1c/nokogiri
