current directory: /data/data/com.termux/files/usr/lib/ruby/gems/2.4.0/gems/nio4r-2.1.0/ext/nio4r
/data/data/com.termux/files/usr/bin/ruby -r ./siteconf20170913-30336-1w7mg9d.rb extconf.rb
checking for unistd.h... yes
checking for sys/select.h... yes
checking for poll.h... yes
checking for sys/epoll.h... yes
checking for sys/event.h... no
checking for port.h... no
checking for sys/resource.h... yes
creating Makefile

current directory: /data/data/com.termux/files/usr/lib/ruby/gems/2.4.0/gems/nio4r-2.1.0/ext/nio4r
make "DESTDIR=" clean

current directory: /data/data/com.termux/files/usr/lib/ruby/gems/2.4.0/gems/nio4r-2.1.0/ext/nio4r
make "DESTDIR="
compiling bytebuffer.c
compiling monitor.c
compiling nio4r_ext.c
In file included from nio4r_ext.c:7:
./../libev/ev.c:488:48: warning: '/*' within block comment [-Wcomment]
/*#define MIN_INTERVAL  0.00000095367431640625 /* 1/2**20, good till 2200 */
                                               ^
./../libev/ev.c:1836:31: warning: 'extern' variable has an initializer [-Wextern-initializer]
  EV_API_DECL struct ev_loop *ev_default_loop_ptr = 0; /* needs to be initialised to make it a definition despite extern */
                              ^
In file included from nio4r_ext.c:7:
In file included from ./../libev/ev.c:2710:
./../libev/ev_poll.c:111:18: warning: expression result unused [-Wunused-value]
        assert (("libev: poll() returned illegal result, broken BSD kernel?", p < polls + pollcnt));
                 ^~~~~~~~~~~~~~~~~~~~~~~~~~~~~~~~~~~~~~~~~~~~~~~~~~~~~~~~~~~
/data/data/com.termux/files/usr/include/assert.h:51:23: note: expanded from macro 'assert'
#  define assert(e) ((e) ? __assert_no_op : __assert2(__FILE__, __LINE__, __PRETTY_FUNCTION__, #e))
                      ^
In file included from nio4r_ext.c:7:
./../libev/ev.c:3123:12: warning: expression result unused [-Wunused-value]
  assert (("libev: watcher has invalid priority", ABSPRI (w) >= 0 && ABSPRI (w) < NUMPRI));
           ^~~~~~~~~~~~~~~~~~~~~~~~~~~~~~~~~~~~~
/data/data/com.termux/files/usr/include/assert.h:51:23: note: expanded from macro 'assert'
#  define assert(e) ((e) ? __assert_no_op : __assert2(__FILE__, __LINE__, __PRETTY_FUNCTION__, #e))
                      ^
In file included from nio4r_ext.c:7:
./../libev/ev.c:3126:14: warning: expression result unused [-Wunused-value]
    assert (("libev: pending watcher not on pending queue", pendings [ABSPRI (w)][w->pending - 1].w == w));
             ^~~~~~~~~~~~~~~~~~~~~~~~~~~~~~~~~~~~~~~~~~~~~
/data/data/com.termux/files/usr/include/assert.h:51:23: note: expanded from macro 'assert'
#  define assert(e) ((e) ? __assert_no_op : __assert2(__FILE__, __LINE__, __PRETTY_FUNCTION__, #e))
                      ^
In file included from nio4r_ext.c:7:
./../libev/ev.c:3137:16: warning: expression result unused [-Wunused-value]
      assert (("libev: active index mismatch in heap", ev_active (ANHE_w (heap [i])) == i));
               ^~~~~~~~~~~~~~~~~~~~~~~~~~~~~~~~~~~~~~
/data/data/com.termux/files/usr/include/assert.h:51:23: note: expanded from macro 'assert'
#  define assert(e) ((e) ? __assert_no_op : __assert2(__FILE__, __LINE__, __PRETTY_FUNCTION__, #e))
                      ^
In file included from nio4r_ext.c:7:
./../libev/ev.c:3138:16: warning: expression result unused [-Wunused-value]
      assert (("libev: heap condition violated", i == HEAP0 || ANHE_at (heap [HPARENT (i)]) <= ANHE_at (heap [i])));
               ^~~~~~~~~~~~~~~~~~~~~~~~~~~~~~~~
/data/data/com.termux/files/usr/include/assert.h:51:23: note: expanded from macro 'assert'
#  define assert(e) ((e) ? __assert_no_op : __assert2(__FILE__, __LINE__, __PRETTY_FUNCTION__, #e))
                      ^
In file included from nio4r_ext.c:7:
./../libev/ev.c:3139:16: warning: expression result unused [-Wunused-value]
      assert (("libev: heap at cache mismatch", ANHE_at (heap [i]) == ev_at (ANHE_w (heap [i]))));
               ^~~~~~~~~~~~~~~~~~~~~~~~~~~~~~~
/data/data/com.termux/files/usr/include/assert.h:51:23: note: expanded from macro 'assert'
#  define assert(e) ((e) ? __assert_no_op : __assert2(__FILE__, __LINE__, __PRETTY_FUNCTION__, #e))
                      ^
In file included from nio4r_ext.c:7:
./../libev/ev.c:3151:16: warning: expression result unused [-Wunused-value]
      assert (("libev: active index mismatch", ev_active (ws [cnt]) == cnt + 1));
               ^~~~~~~~~~~~~~~~~~~~~~~~~~~~~~
/data/data/com.termux/files/usr/include/assert.h:51:23: note: expanded from macro 'assert'
#  define assert(e) ((e) ? __assert_no_op : __assert2(__FILE__, __LINE__, __PRETTY_FUNCTION__, #e))
                      ^
In file included from nio4r_ext.c:7:
./../libev/ev.c:3169:14: warning: expression result unused [-Wunused-value]
    assert (("libev: negative fd in fdchanges", fdchanges [i] >= 0));
             ^~~~~~~~~~~~~~~~~~~~~~~~~~~~~~~~~
/data/data/com.termux/files/usr/include/assert.h:51:23: note: expanded from macro 'assert'
#  define assert(e) ((e) ? __assert_no_op : __assert2(__FILE__, __LINE__, __PRETTY_FUNCTION__, #e))
                      ^
In file included from nio4r_ext.c:7:
./../libev/ev.c:3182:24: warning: expression result unused [-Wunused-value]
              assert (("libev: io watcher list contains a loop", w != w2));
                       ^~~~~~~~~~~~~~~~~~~~~~~~~~~~~~~~~~~~~~~~
/data/data/com.termux/files/usr/include/assert.h:51:23: note: expanded from macro 'assert'
#  define assert(e) ((e) ? __assert_no_op : __assert2(__FILE__, __LINE__, __PRETTY_FUNCTION__, #e))
                      ^
In file included from nio4r_ext.c:7:
./../libev/ev.c:3186:20: warning: expression result unused [-Wunused-value]
          assert (("libev: inactive fd watcher on anfd list", ev_active (w) == 1));
                   ^~~~~~~~~~~~~~~~~~~~~~~~~~~~~~~~~~~~~~~~~
/data/data/com.termux/files/usr/include/assert.h:51:23: note: expanded from macro 'assert'
#  define assert(e) ((e) ? __assert_no_op : __assert2(__FILE__, __LINE__, __PRETTY_FUNCTION__, #e))
                      ^
In file included from nio4r_ext.c:7:
./../libev/ev.c:3187:20: warning: expression result unused [-Wunused-value]
          assert (("libev: fd mismatch between watcher and anfd", ((ev_io *)w)->fd == i));
                   ^~~~~~~~~~~~~~~~~~~~~~~~~~~~~~~~~~~~~~~~~~~~~
/data/data/com.termux/files/usr/include/assert.h:51:23: note: expanded from macro 'assert'
#  define assert(e) ((e) ? __assert_no_op : __assert2(__FILE__, __LINE__, __PRETTY_FUNCTION__, #e))
                      ^
In file included from nio4r_ext.c:7:
./../libev/ev.c:3371:24: warning: expression result unused [-Wunused-value]
              assert (("libev: negative ev_timer repeat value found while processing timers", w->repeat > 0.));
                       ^~~~~~~~~~~~~~~~~~~~~~~~~~~~~~~~~~~~~~~~~~~~~~~~~~~~~~~~~~~~~~~~~~~~~
/data/data/com.termux/files/usr/include/assert.h:51:23: note: expanded from macro 'assert'
#  define assert(e) ((e) ? __assert_no_op : __assert2(__FILE__, __LINE__, __PRETTY_FUNCTION__, #e))
                      ^
In file included from nio4r_ext.c:7:
./../libev/ev.c:3434:24: warning: expression result unused [-Wunused-value]
              assert (("libev: ev_periodic reschedule callback returned time in the past", ev_at (w) >= ev_rt_now));
                       ^~~~~~~~~~~~~~~~~~~~~~~~~~~~~~~~~~~~~~~~~~~~~~~~~~~~~~~~~~~~~~~~~~
/data/data/com.termux/files/usr/include/assert.h:51:23: note: expanded from macro 'assert'
#  define assert(e) ((e) ? __assert_no_op : __assert2(__FILE__, __LINE__, __PRETTY_FUNCTION__, #e))
                      ^
In file included from nio4r_ext.c:7:
./../libev/ev.c:3580:1: warning: control reaches end of non-void function [-Wreturn-type]
}
^
./../libev/ev.c:3594:12: warning: expression result unused [-Wunused-value]
  assert (("libev: ev_loop recursion during release detected", loop_done != EVBREAK_RECURSE));
           ^~~~~~~~~~~~~~~~~~~~~~~~~~~~~~~~~~~~~~~~~~~~~~~~~~
/data/data/com.termux/files/usr/include/assert.h:51:23: note: expanded from macro 'assert'
#  define assert(e) ((e) ? __assert_no_op : __assert2(__FILE__, __LINE__, __PRETTY_FUNCTION__, #e))
                      ^
In file included from nio4r_ext.c:7:
./../libev/ev.c:3750:36: warning: incompatible pointer types passing 'VALUE (void *)' (aka 'unsigned long (void *)') to parameter of type 'void *(*)(void *)' [-Wincompatible-pointer-types]
        rb_thread_call_without_gvl(ev_backend_poll, (void *)&poll_args, RUBY_UBF_IO, 0);
                                   ^~~~~~~~~~~~~~~
/data/data/com.termux/files/usr/include/ruby-2.4.0/ruby/thread.h:28:42: note: passing argument to parameter 'func' here
void *rb_thread_call_without_gvl(void *(*func)(void *), void *data1,
                                         ^
In file included from nio4r_ext.c:7:
./../libev/ev.c:3762:22: warning: expression result unused [-Wunused-value]
            assert (("libev: pipe_w not active, but pipe not written", ev_is_active (&pipe_w)));
                     ^~~~~~~~~~~~~~~~~~~~~~~~~~~~~~~~~~~~~~~~~~~~~~~~
/data/data/com.termux/files/usr/include/assert.h:51:23: note: expanded from macro 'assert'
#  define assert(e) ((e) ? __assert_no_op : __assert2(__FILE__, __LINE__, __PRETTY_FUNCTION__, #e))
                      ^
In file included from nio4r_ext.c:7:
./../libev/ev.c:3937:12: warning: expression result unused [-Wunused-value]
  assert (("libev: ev_io_start called with negative fd", fd >= 0));
           ^~~~~~~~~~~~~~~~~~~~~~~~~~~~~~~~~~~~~~~~~~~~
/data/data/com.termux/files/usr/include/assert.h:51:23: note: expanded from macro 'assert'
#  define assert(e) ((e) ? __assert_no_op : __assert2(__FILE__, __LINE__, __PRETTY_FUNCTION__, #e))
                      ^
In file included from nio4r_ext.c:7:
./../libev/ev.c:3938:12: warning: expression result unused [-Wunused-value]
  assert (("libev: ev_io_start called with illegal event mask", !(w->events & ~(EV__IOFDSET | EV_READ | EV_WRITE))));
           ^~~~~~~~~~~~~~~~~~~~~~~~~~~~~~~~~~~~~~~~~~~~~~~~~~~
/data/data/com.termux/files/usr/include/assert.h:51:23: note: expanded from macro 'assert'
#  define assert(e) ((e) ? __assert_no_op : __assert2(__FILE__, __LINE__, __PRETTY_FUNCTION__, #e))
                      ^
In file included from nio4r_ext.c:7:
./../libev/ev.c:3947:12: warning: expression result unused [-Wunused-value]
  assert (("libev: ev_io_start called with corrupted watcher", ((WL)w)->next != (WL)w));
           ^~~~~~~~~~~~~~~~~~~~~~~~~~~~~~~~~~~~~~~~~~~~~~~~~~
/data/data/com.termux/files/usr/include/assert.h:51:23: note: expanded from macro 'assert'
#  define assert(e) ((e) ? __assert_no_op : __assert2(__FILE__, __LINE__, __PRETTY_FUNCTION__, #e))
                      ^
In file included from nio4r_ext.c:7:
./../libev/ev.c:3949:34: warning: '&' within '|' [-Wbitwise-op-parentheses]
  fd_change (EV_A_ fd, w->events & EV__IOFDSET | EV_ANFD_REIFY);
                       ~~~~~~~~~~^~~~~~~~~~~~~ ~
./../libev/ev.c:3949:34: note: place parentheses around the '&' expression to silence this warning
  fd_change (EV_A_ fd, w->events & EV__IOFDSET | EV_ANFD_REIFY);
                                 ^
                       (                      )
./../libev/ev.c:3963:12: warning: expression result unused [-Wunused-value]
  assert (("libev: ev_io_stop called with illegal fd (must stay constant after start!)", w->fd >= 0 && w->fd < anfdmax));
           ^~~~~~~~~~~~~~~~~~~~~~~~~~~~~~~~~~~~~~~~~~~~~~~~~~~~~~~~~~~~~~~~~~~~~~~~~~~~
/data/data/com.termux/files/usr/include/assert.h:51:23: note: expanded from macro 'assert'
#  define assert(e) ((e) ? __assert_no_op : __assert2(__FILE__, __LINE__, __PRETTY_FUNCTION__, #e))
                      ^
In file included from nio4r_ext.c:7:
./../libev/ev.c:3984:12: warning: expression result unused [-Wunused-value]
  assert (("libev: ev_timer_start called with negative timer repeat value", w->repeat >= 0.));
           ^~~~~~~~~~~~~~~~~~~~~~~~~~~~~~~~~~~~~~~~~~~~~~~~~~~~~~~~~~~~~~~
/data/data/com.termux/files/usr/include/assert.h:51:23: note: expanded from macro 'assert'
#  define assert(e) ((e) ? __assert_no_op : __assert2(__FILE__, __LINE__, __PRETTY_FUNCTION__, #e))
                      ^
In file included from nio4r_ext.c:7:
./../libev/ev.c:4013:14: warning: expression result unused [-Wunused-value]
    assert (("libev: internal timer heap corruption", ANHE_w (timers [active]) == (WT)w));
             ^~~~~~~~~~~~~~~~~~~~~~~~~~~~~~~~~~~~~~~
/data/data/com.termux/files/usr/include/assert.h:51:23: note: expanded from macro 'assert'
#  define assert(e) ((e) ? __assert_no_op : __assert2(__FILE__, __LINE__, __PRETTY_FUNCTION__, #e))
                      ^
In file included from nio4r_ext.c:7:
./../libev/ev.c:4077:16: warning: expression result unused [-Wunused-value]
      assert (("libev: ev_periodic_start called with negative interval value", w->interval >= 0.));
               ^~~~~~~~~~~~~~~~~~~~~~~~~~~~~~~~~~~~~~~~~~~~~~~~~~~~~~~~~~~~~~
/data/data/com.termux/files/usr/include/assert.h:51:23: note: expanded from macro 'assert'
#  define assert(e) ((e) ? __assert_no_op : __assert2(__FILE__, __LINE__, __PRETTY_FUNCTION__, #e))
                      ^
In file included from nio4r_ext.c:7:
./../libev/ev.c:4110:14: warning: expression result unused [-Wunused-value]
    assert (("libev: internal periodic heap corruption", ANHE_w (periodics [active]) == (WT)w));
             ^~~~~~~~~~~~~~~~~~~~~~~~~~~~~~~~~~~~~~~~~~
/data/data/com.termux/files/usr/include/assert.h:51:23: note: expanded from macro 'assert'
#  define assert(e) ((e) ? __assert_no_op : __assert2(__FILE__, __LINE__, __PRETTY_FUNCTION__, #e))
                      ^
In file included from nio4r_ext.c:7:
./../libev/ev.c:4149:12: warning: expression result unused [-Wunused-value]
  assert (("libev: ev_signal_start called with illegal signal number", w->signum > 0 && w->signum < EV_NSIG));
           ^~~~~~~~~~~~~~~~~~~~~~~~~~~~~~~~~~~~~~~~~~~~~~~~~~~~~~~~~~
/data/data/com.termux/files/usr/include/assert.h:51:23: note: expanded from macro 'assert'
#  define assert(e) ((e) ? __assert_no_op : __assert2(__FILE__, __LINE__, __PRETTY_FUNCTION__, #e))
                      ^
In file included from nio4r_ext.c:7:
./../libev/ev.c:4152:12: warning: expression result unused [-Wunused-value]
  assert (("libev: a signal must not be attached to two different loops",
           ^~~~~~~~~~~~~~~~~~~~~~~~~~~~~~~~~~~~~~~~~~~~~~~~~~~~~~~~~~~~~
/data/data/com.termux/files/usr/include/assert.h:51:23: note: expanded from macro 'assert'
#  define assert(e) ((e) ? __assert_no_op : __assert2(__FILE__, __LINE__, __PRETTY_FUNCTION__, #e))
                      ^
In file included from nio4r_ext.c:7:
./../libev/ev.c:4271:12: warning: expression result unused [-Wunused-value]
  assert (("libev: child watchers are only supported in the default loop", loop == ev_default_loop_ptr));
           ^~~~~~~~~~~~~~~~~~~~~~~~~~~~~~~~~~~~~~~~~~~~~~~~~~~~~~~~~~~~~~
/data/data/com.termux/files/usr/include/assert.h:51:23: note: expanded from macro 'assert'
#  define assert(e) ((e) ? __assert_no_op : __assert2(__FILE__, __LINE__, __PRETTY_FUNCTION__, #e))
                      ^
In file included from nio4r_ext.c:7:
./../libev/ev.c:4856:14: warning: expression result unused [-Wunused-value]
    assert (("libev: loop to be embedded is not embeddable", backend & ev_embeddable_backends ()));
             ^~~~~~~~~~~~~~~~~~~~~~~~~~~~~~~~~~~~~~~~~~~~~~
/data/data/com.termux/files/usr/include/assert.h:51:23: note: expanded from macro 'assert'
#  define assert(e) ((e) ? __assert_no_op : __assert2(__FILE__, __LINE__, __PRETTY_FUNCTION__, #e))
                      ^
32 warnings generated.
compiling selector.c
linking shared-object nio4r_ext.so

current directory: /data/data/com.termux/files/usr/lib/ruby/gems/2.4.0/gems/nio4r-2.1.0/ext/nio4r
make "DESTDIR=" install
install -c -m 0755 nio4r_ext.so ./.gem.20170913-30336-flb2dq
