current directory: /data/data/com.termux/files/usr/lib/ruby/gems/2.4.0/gems/redcarpet-3.4.0/ext/redcarpet
/data/data/com.termux/files/usr/bin/ruby -r ./siteconf20170913-32589-kkjrjw.rb extconf.rb
creating Makefile

current directory: /data/data/com.termux/files/usr/lib/ruby/gems/2.4.0/gems/redcarpet-3.4.0/ext/redcarpet
make "DESTDIR=" clean

current directory: /data/data/com.termux/files/usr/lib/ruby/gems/2.4.0/gems/redcarpet-3.4.0/ext/redcarpet
make "DESTDIR="
compiling autolink.c
compiling buffer.c
buffer.c:111:45: warning: passing 'const struct buf *' to parameter of type 'struct buf *' discards qualifiers [-Wincompatible-pointer-types-discards-qualifiers]
        if (buf->size + 1 <= buf->asize || bufgrow(buf, buf->size + 1) == BUF_OK) {
                                                   ^~~
buffer.c:60:21: note: passing argument to parameter 'buf' here
bufgrow(struct buf *buf, size_t neosz)
                    ^
1 warning generated.
compiling houdini_href_e.c
compiling houdini_html_e.c
compiling html.c
compiling html_smartypants.c
compiling markdown.c
markdown.c:2836:43: warning: passing 'const uint8_t *' (aka 'const unsigned char *') to parameter of type 'uint8_t *' (aka 'unsigned char *') discards qualifiers [-Wincompatible-pointer-types-discards-qualifiers]
                if (codefences_enabled && (is_codefence(document + beg, doc_size - beg, NULL) != 0))
                                                        ^~~~~~~~~~~~~~
markdown.c:1389:23: note: passing argument to parameter 'data' here
is_codefence(uint8_t *data, size_t size, struct buf *syntax)
                      ^
1 warning generated.
compiling rc_markdown.c
compiling rc_render.c
compiling stack.c
linking shared-object redcarpet.so

current directory: /data/data/com.termux/files/usr/lib/ruby/gems/2.4.0/gems/redcarpet-3.4.0/ext/redcarpet
make "DESTDIR=" install
install -c -m 0755 redcarpet.so ./.gem.20170913-32589-ouw912
