current directory: /data/data/com.termux/files/usr/lib/ruby/gems/2.4.0/gems/bcrypt_pbkdf-1.0.0/ext/mri
/data/data/com.termux/files/usr/bin/ruby -r ./siteconf20170913-26131-1wqfnd2.rb extconf.rb
creating Makefile

current directory: /data/data/com.termux/files/usr/lib/ruby/gems/2.4.0/gems/bcrypt_pbkdf-1.0.0/ext/mri
make "DESTDIR=" clean

current directory: /data/data/com.termux/files/usr/lib/ruby/gems/2.4.0/gems/bcrypt_pbkdf-1.0.0/ext/mri
make "DESTDIR="
compiling bcrypt_pbkdf.c
compiling bcrypt_pbkdf_ext.c
compiling blowfish.c
compiling explicit_bzero.c
compiling hash_sha512.c
linking shared-object bcrypt_pbkdf_ext.so

current directory: /data/data/com.termux/files/usr/lib/ruby/gems/2.4.0/gems/bcrypt_pbkdf-1.0.0/ext/mri
make "DESTDIR=" install
install -c -m 0755 bcrypt_pbkdf_ext.so ./.gem.20170913-26131-1bqj04c
